{"info": {"limit": 5, "total": 73244, "page": 1, "total_page": 14649}, "success": true, "message": "Ok", "data": [{"articleUrl": "/winamp-yang-mati-kini-terlahir-kembali-c8nZ", "date_news": "2018-10-27 17:30:00", "id_topic_pialadunia": null, "image": [{"url": "2018/10/22/winamp--1--getty-images.jpg", "caption": "Winamp adalah media player yang sangat populer untuk sistem operasi Windows, yang diciptakan Nullsoft, anak perusahaan AOL.", "id_files": 323984, "nama_file": "winamp--1--getty-images.jpg", "flag_cover": 1}, {"url": "2018/10/22/winamp--1--getty-images.jpg", "caption": "Winamp adalah media player yang sangat populer untuk sistem operasi Windows, yang diciptakan Nullsoft, anak perusahaan AOL.", "id_files": 323985, "nama_file": "winamp--1--getty-images.jpg", "flag_cover": 0}], "judul": "Winamp yang Mati, Kini Terlahir Kembali", "match_id": "", "player_id": "", "ringkasan": "Melalui Radionomy, Winamp&amp;nbsp;terlahir kembali.", "team_id": "", "articleUrlNew": "winamp-yang-mati-kini-terlahir-kembali-c8nZ", "image_infografik": "2018/10/22/winamp--mild--nadya.jpg", "label_kanal": "Mild Report", "label_navbar": "Musik", "flag_tvr": 0}, {"articleUrl": "/karnaval-mandiri-apresiasi-kinerja-karyawan-c8H6", "date_news": "2018-10-27 17:05:44", "id_topic_pialadunia": null, "image": [{"url": "2018/10/23/mandiri-karnaval--12--tirto.id-hafitz-maulana_ratio-16x9.jpg", "caption": "Pengunjung berswafoto di area hiburan Mandiri Karnaval di kawasan Gelora Bung Karno, Jakarta, Sabtu (20/10/2018). tirto.id/Hafitz Maulana", "id_files": 323986, "nama_file": "mandiri-karnaval--12--tirto.id-hafitz-maulana_ratio-16x9.jpg", "flag_cover": 1}, {"url": "2018/10/23/mandiri-karnaval--12--tirto.id-hafitz-maulana_ratio-16x9.jpg", "caption": "Pengunjung berswafoto di area hiburan Mandiri Karnaval di kawasan Gelora Bung Karno, Jakarta, Sabtu (20/10/2018). tirto.id/Hafitz Maulana", "id_files": 323987, "nama_file": "mandiri-karnaval--12--tirto.id-hafitz-maulana_ratio-16x9.jpg", "flag_cover": 0}], "judul": "Karnaval Mandiri, Apresiasi Kinerja Karyawan ", "match_id": "", "player_id": "", "ringkasan": "Karnaval Mandiri sebagai apresiasi kepada karyawan atas kerja keras, kerja cerdas, kerja tuntas yang telah diberikan.", "team_id": "", "articleUrlNew": "karnaval-mandiri-apresiasi-kinerja-karyawan-c8H6", "image_infografik": false, "label_kanal": "Hard News", "label_navbar": "Bisnis", "flag_tvr": 0}, {"articleUrl": "/hasil-french-open-2018-greysia-apriyani-disingkirkan-ganda-jepang-c8H1", "date_news": "2018-10-27 16:55:52", "id_topic_pialadunia": null, "image": [{"url": "2018/07/06/polli-rahayu-kalah-antarafoto_ratio-16x9.jpg", "caption": "Ganda Putri Indonesia Greysia Polii dan Apriyani Rahayu berlaga melawan ganda putri Jepang Yuki Fukushima dan Sayaka Hirota pada turnamen bulu tangkis Indonesian Open 2018 di Istora Senayan, Jakarta, Jumat (6/7/2018). ANTARA FOTO/Muhammad Adimaja", "id_files": 323974, "nama_file": "polli-rahayu-kalah-antarafoto_ratio-16x9.jpg", "flag_cover": 1}, {"url": "2018/07/06/polli-rahayu-kalah-antarafoto_ratio-16x9.jpg", "caption": "Ganda Putri Indonesia Greysia Polii dan Apriyani Rahayu berlaga melawan ganda putri Jepang Yuki Fukushima dan Sayaka Hirota pada turnamen bulu tangkis Indonesian Open 2018 di Istora Senayan, Jakarta, Jumat (6/7/2018). ANTARA FOTO/Muhammad Adimaja", "id_files": 323975, "nama_file": "polli-rahayu-kalah-antarafoto_ratio-16x9.jpg", "flag_cover": 0}], "judul": "Hasil French Open 2018: Greysia/Apriyani Disingkirkan Ganda Jepang", "match_id": "", "player_id": "", "ringkasan": "Langkah Greysia/Apriyani terhenti di semifinal French Open 2018 usai ditaklukkan Mayu Matsumoto/Wakana Nagahara.", "team_id": "", "articleUrlNew": "hasil-french-open-2018-greysia-apriyani-disingkirkan-ganda-jepang-c8H1", "image_infografik": false, "label_kanal": "Hard News", "label_navbar": "Olahraga", "flag_tvr": 0}, {"articleUrl": "/jelang-timnas-u-19-indonesia-vs-jepang-egy-todd-siap-tampil-c8H5", "date_news": "2018-10-27 16:50:05", "id_topic_pialadunia": null, "image": [{"url": "2018/10/27/indonesia-u19-melaju-perempat-final--antarafoto.jpg", "caption": "Pemain Timnas Indonesia Egy Maulana Vikri menggiring bola yang dihadang pemain Timnas Uni Emirat Arab Eid Khamis dalam penyisihan Grup A Piala Asia U-19 di Stadion Utama Gelora Bung Karno, Jakarta, Rabu (24/10/2018). ANTARA FOTO/Sigid Kurniawan", "id_files": 323982, "nama_file": "indonesia-u19-melaju-perempat-final--antarafoto.jpg", "flag_cover": 1}, {"url": "2018/10/27/indonesia-u19-melaju-perempat-final--antarafoto.jpg", "caption": "Pemain Timnas Indonesia Egy Maulana Vikri menggiring bola yang dihadang pemain Timnas Uni Emirat Arab Eid Khamis dalam penyisihan Grup A Piala Asia U-19 di Stadion Utama Gelora Bung Karno, Jakarta, Rabu (24/10/2018). ANTARA FOTO/Sigid Kurniawan", "id_files": 323983, "nama_file": "indonesia-u19-melaju-perempat-final--antarafoto.jpg", "flag_cover": 0}], "judul": "Jelang Timnas U-19 Indonesia vs Jepang: Egy &amp; Todd Siap Tampil?", "match_id": "", "player_id": "", "ringkasan": "Egy&amp;nbsp;dan Todd mengalami cedera saat Timnas U-19 Indonesia berhadapan dengan UEA, namun kondisi keduanya tidak parah.", "team_id": "", "articleUrlNew": "jelang-timnas-u-19-indonesia-vs-jepang-egy-amp-todd-siap-tampil-c8H5", "image_infografik": false, "label_kanal": "Hard News", "label_navbar": "Olahraga", "flag_tvr": 0}, {"articleUrl": "/rembuk-dan-hubungannya-dengan-revolusi-mental-c8H4", "date_news": "2018-10-27 16:47:35", "id_topic_pialadunia": null, "image": [{"url": "2018/10/27/pidato-ahmad-syafii-mufid-tentang-rembuk-revolusi-mental--tirto.id_ratio-16x9.jpg", "caption": "Ketua Indonesia Institute for Society Empowerment, Dr Ahmad Syafii Mufid memberikan paparannya pada Pekan Kerja Nyata Revolusi Mental di Manado, Sabtu (27/10/2018). tirto.id/Zulkifli SongyanannPM", "id_files": 323980, "nama_file": "pidato-ahmad-syafii-mufid-tentang-rembuk-revolusi-mental--tirto.id_ratio-16x9.jpg", "flag_cover": 1}, {"url": "2018/10/27/pidato-ahmad-syafii-mufid-tentang-rembuk-revolusi-mental--tirto.id_ratio-16x9.jpg", "caption": "Ketua Indonesia Institute for Society Empowerment, Dr Ahmad Syafii Mufid memberikan paparannya pada Pekan Kerja Nyata Revolusi Mental di Manado, Sabtu (27/10/2018). tirto.id/Zulkifli SongyanannPM", "id_files": 323981, "nama_file": "pidato-ahmad-syafii-mufid-tentang-rembuk-revolusi-mental--tirto.id_ratio-16x9.jpg", "flag_cover": 0}], "judul": "Rembuk dan Hubungannya dengan Revolusi Mental", "match_id": "", "player_id": "", "ringkasan": "Memelihara dan mengembangkan sikap toleransi bisa dilakukan melalui rembuk.", "team_id": "", "articleUrlNew": "rembuk-dan-hubungannya-dengan-revolusi-mental-c8H4", "image_infografik": false, "label_kanal": "Hard News", "label_navbar": "Sosial Budaya", "flag_tvr": 0}]}